Content-Type: text/x-zim-wiki
Wiki-Format: zim 0.4
Creation-Date: 2020-03-06T10:43:54+01:00

====== Documenter dans réalisations ======


===== Description =====

Créer la documentation de la partie "Réalisations".

===== Sous-tâches =====


* Documenter les extensions mathématiques | à faire | 2020.
* ...
