Content-Type: text/x-zim-wiki
Wiki-Format: zim 0.4
Creation-Date: 2018-09-27T17:46:19+02:00

====== essai 2, th 3 ======


===== Contexte =====

[[Recherche d'une preuve|Voir Essai 2]]

===== Énoncé =====

==== Variables ====

==== Conditions ====

==== Conclusion ====


===== Étude =====

[[+Recherche d'une preuve|Recherche d'une preuve]]


===== Preuve =====



 @todo 
